COVID-19 Prison Data by NYT
…
fac

# A tibble: 2,639 x 16
   nyt_id facility_name facility_type facility_city facility_county
   <chr>  <chr>         <chr>         <chr>         <chr>          
 1 F3EFE… Alex City Wo… Low-security… Alex City     Coosa          
 2 5B910… Alabama Ther… State rehabi… Columbiana    Shelby         
 3 02FB1… Bibb Correct… State prison  Brent         Bibb           
 4 6378F… Birmingham W… State prison  Birmingham    Jefferson      
 5 EAABF… Bullock Corr… State prison  Bessemer      Bullock        
 6 D19A2… Camden prison State prison  Camden        Wilcox         
 7 F80A4… Childersburg… State prison  Childersburg  Talladega      
 8 F119A… William E. D… State prison  Bessemer      Jefferson      
 9 41B5B… Draper Corre… State prison  Elmore        Elmore         
10 9C1D5… Easterling C… State prison  Cilo          Barbour        
# … with 2,629 more rows, and 11 more variables: facility_county_fips <chr>,
#   facility_state <chr>, facility_lng <dbl>, facility_lat <dbl>,
#   latest_inmate_population <dbl>, max_inmate_population_2020 <dbl>,
#   total_inmate_cases <dbl>, total_inmate_deaths <dbl>,
#   total_officer_cases <dbl>, total_officer_deaths <dbl>, note <chr>
…
